projectKey=txinwen0328_hello
serverUrl=http://192.168.0.2:9000
serverVersion=9.0.1.46107
dashboardUrl=http://192.168.0.2:9000/dashboard?id=txinwen0328_hello
ceTaskId=AXvxNbXN8x-Cssi8NR39
ceTaskUrl=http://192.168.0.2:9000/api/ce/task?id=AXvxNbXN8x-Cssi8NR39
